^C:\USERS\MAJA\DESKTOP\POOP_PROJEKAT1\POOP_PROJEKAT1\BUSSTOP.CPP|C:\USERS\MAJA\DESKTOP\POOP_PROJEKAT1\POOP_PROJEKAT1\CSV_EDGES.CPP|C:\USERS\MAJA\DESKTOP\POOP_PROJEKAT1\POOP_PROJEKAT1\CSV_NEIGHLISTS.CPP|C:\USERS\MAJA\DESKTOP\POOP_PROJEKAT1\POOP_PROJEKAT1\DIRECTION.CPP|C:\USERS\MAJA\DESKTOP\POOP_PROJEKAT1\POOP_PROJEKAT1\GMLFORMAT.CPP|C:\USERS\MAJA\DESKTOP\POOP_PROJEKAT1\POOP_PROJEKAT1\LINE.CPP|C:\USERS\MAJA\DESKTOP\POOP_PROJEKAT1\POOP_PROJEKAT1\MAIN.CPP|C:\USERS\MAJA\DESKTOP\POOP_PROJEKAT1\POOP_PROJEKAT1\NETWORK.CPP
C:\USERS\MAJA\DESKTOP\POOP_PROJEKAT1\POOP_PROJEKAT1\DEBUG\VC140.PDB
C:\USERS\MAJA\DESKTOP\POOP_PROJEKAT1\POOP_PROJEKAT1\DEBUG\VC140.IDB
C:\USERS\MAJA\DESKTOP\POOP_PROJEKAT1\POOP_PROJEKAT1\DEBUG\BUSSTOP.OBJ
C:\USERS\MAJA\DESKTOP\POOP_PROJEKAT1\POOP_PROJEKAT1\DEBUG\CSV_EDGES.OBJ
C:\USERS\MAJA\DESKTOP\POOP_PROJEKAT1\POOP_PROJEKAT1\DEBUG\CSV_NEIGHLISTS.OBJ
C:\USERS\MAJA\DESKTOP\POOP_PROJEKAT1\POOP_PROJEKAT1\DEBUG\DIRECTION.OBJ
C:\USERS\MAJA\DESKTOP\POOP_PROJEKAT1\POOP_PROJEKAT1\DEBUG\GMLFORMAT.OBJ
C:\USERS\MAJA\DESKTOP\POOP_PROJEKAT1\POOP_PROJEKAT1\DEBUG\LINE.OBJ
C:\USERS\MAJA\DESKTOP\POOP_PROJEKAT1\POOP_PROJEKAT1\DEBUG\MAIN.OBJ
C:\USERS\MAJA\DESKTOP\POOP_PROJEKAT1\POOP_PROJEKAT1\DEBUG\NETWORK.OBJ
^C:\USERS\MAJA\DESKTOP\POOP_PROJEKAT1\POOP_PROJEKAT1\BUSSTOP.CPP
C:\USERS\MAJA\DESKTOP\POOP_PROJEKAT1\POOP_PROJEKAT1\DEBUG\VC140.PDB
C:\USERS\MAJA\DESKTOP\POOP_PROJEKAT1\POOP_PROJEKAT1\DEBUG\VC140.IDB
C:\USERS\MAJA\DESKTOP\POOP_PROJEKAT1\POOP_PROJEKAT1\DEBUG\BUSSTOP.OBJ
^C:\USERS\MAJA\DESKTOP\POOP_PROJEKAT1\POOP_PROJEKAT1\CSV_EDGES.CPP
C:\USERS\MAJA\DESKTOP\POOP_PROJEKAT1\POOP_PROJEKAT1\DEBUG\VC140.PDB
^C:\USERS\MAJA\DESKTOP\POOP_PROJEKAT1\POOP_PROJEKAT1\CSV_NEIGHLISTS.CPP
C:\USERS\MAJA\DESKTOP\POOP_PROJEKAT1\POOP_PROJEKAT1\DEBUG\VC140.PDB
^C:\USERS\MAJA\DESKTOP\POOP_PROJEKAT1\POOP_PROJEKAT1\DIRECTION.CPP
C:\USERS\MAJA\DESKTOP\POOP_PROJEKAT1\POOP_PROJEKAT1\DEBUG\VC140.PDB
C:\USERS\MAJA\DESKTOP\POOP_PROJEKAT1\POOP_PROJEKAT1\DEBUG\VC140.IDB
C:\USERS\MAJA\DESKTOP\POOP_PROJEKAT1\POOP_PROJEKAT1\DEBUG\DIRECTION.OBJ
^C:\USERS\MAJA\DESKTOP\POOP_PROJEKAT1\POOP_PROJEKAT1\GMLFORMAT.CPP
C:\USERS\MAJA\DESKTOP\POOP_PROJEKAT1\POOP_PROJEKAT1\DEBUG\VC140.PDB
^C:\USERS\MAJA\DESKTOP\POOP_PROJEKAT1\POOP_PROJEKAT1\LINE.CPP
C:\USERS\MAJA\DESKTOP\POOP_PROJEKAT1\POOP_PROJEKAT1\DEBUG\VC140.PDB
^C:\USERS\MAJA\DESKTOP\POOP_PROJEKAT1\POOP_PROJEKAT1\MAIN.CPP
C:\USERS\MAJA\DESKTOP\POOP_PROJEKAT1\POOP_PROJEKAT1\DEBUG\VC140.PDB
C:\USERS\MAJA\DESKTOP\POOP_PROJEKAT1\POOP_PROJEKAT1\DEBUG\VC140.IDB
C:\USERS\MAJA\DESKTOP\POOP_PROJEKAT1\POOP_PROJEKAT1\DEBUG\MAIN.OBJ
^C:\USERS\MAJA\DESKTOP\POOP_PROJEKAT1\POOP_PROJEKAT1\NETWORK.CPP
C:\USERS\MAJA\DESKTOP\POOP_PROJEKAT1\POOP_PROJEKAT1\DEBUG\VC140.PDB
C:\USERS\MAJA\DESKTOP\POOP_PROJEKAT1\POOP_PROJEKAT1\DEBUG\VC140.IDB
C:\USERS\MAJA\DESKTOP\POOP_PROJEKAT1\POOP_PROJEKAT1\DEBUG\NETWORK.OBJ
^C:\USERS\MAJA\DESKTOP\POOP_PROJEKAT1\POOP_PROJEKAT1\DIRECTION.CPP|C:\USERS\MAJA\DESKTOP\POOP_PROJEKAT1\POOP_PROJEKAT1\MAIN.CPP|C:\USERS\MAJA\DESKTOP\POOP_PROJEKAT1\POOP_PROJEKAT1\NETWORK.CPP
C:\USERS\MAJA\DESKTOP\POOP_PROJEKAT1\POOP_PROJEKAT1\DEBUG\VC140.PDB
C:\USERS\MAJA\DESKTOP\POOP_PROJEKAT1\POOP_PROJEKAT1\DEBUG\VC140.IDB
C:\USERS\MAJA\DESKTOP\POOP_PROJEKAT1\POOP_PROJEKAT1\DEBUG\DIRECTION.OBJ
C:\USERS\MAJA\DESKTOP\POOP_PROJEKAT1\POOP_PROJEKAT1\DEBUG\MAIN.OBJ
C:\USERS\MAJA\DESKTOP\POOP_PROJEKAT1\POOP_PROJEKAT1\DEBUG\NETWORK.OBJ
^C:\USERS\MAJA\DESKTOP\POOP_PROJEKAT1\POOP_PROJEKAT1\DIRECTION.CPP|C:\USERS\MAJA\DESKTOP\POOP_PROJEKAT1\POOP_PROJEKAT1\NETWORK.CPP
C:\USERS\MAJA\DESKTOP\POOP_PROJEKAT1\POOP_PROJEKAT1\DEBUG\VC140.PDB
C:\USERS\MAJA\DESKTOP\POOP_PROJEKAT1\POOP_PROJEKAT1\DEBUG\VC140.IDB
C:\USERS\MAJA\DESKTOP\POOP_PROJEKAT1\POOP_PROJEKAT1\DEBUG\DIRECTION.OBJ
C:\USERS\MAJA\DESKTOP\POOP_PROJEKAT1\POOP_PROJEKAT1\DEBUG\NETWORK.OBJ
